L’assurance-maladie obligatoire suisse dans l’impasse. Une analyse du compromis socio-politique derrière la Loi fédérale sur l’assurance maladie (LAMal)
…
L’assurance-maladie obligatoire suisse dans l’impasse. Une analyse du compromis socio-politique derrière la Loi fédérale sur l’assurance maladie (LAMal)

Annexe

    Authors

             Celâl Güney 

             Gaia Valenti 

Swissvotes

# A tibble: 86 × 2
    d1e3     n
   <dbl> <int>
 1  1.21     5
 2  1.23     1
 3  1.24     5
 4  1.31    13
 5  1.32    11
 6  1.33     5
 7  1.34     3
 8  1.41     8
 9  1.42     5
10  1.43     8
# ℹ 76 more rows
…
